('E:\\1-Working Project\\SQLPALACE\\dist\\main.exe',
 True,
 False,
 False,
 None,
 None,
 False,
 False,
 '<?xml version="1.0" encoding="UTF-8" standalone="yes"?><assembly manifestVersion="1.0" xmlns="urn:schemas-microsoft-com:asm.v1"><assemblyIdentity name="main" processorArchitecture="x86" type="win32" version="1.0.0.0"/><compatibility xmlns="urn:schemas-microsoft-com:compatibility.v1"><application><supportedOS Id="{4a2f28e3-53b9-4441-ba9c-d69d4a4a6e38}"/><supportedOS Id="{8e0f7a12-bfb3-4fe8-b9a5-48fd50a15a9a}"/><supportedOS Id="{1f676c76-80e1-4239-95bb-83d0f6d0da78}"/><supportedOS Id="{35138b9a-5d96-4fbd-8e2d-a2440225f93a}"/><supportedOS Id="{e2011457-1546-43c5-a5fe-008deee3d3f0}"/></application></compatibility></assembly>',
 True,
 'main.pkg',
 [('out00-PYZ.pyz',
   'E:\\1-Working Project\\SQLPALACE\\build\\main\\out00-PYZ.pyz',
   'PYZ'),
  ('struct', 'e:\\working application\\python\\lib\\struct.pyo', 'PYMODULE'),
  ('pyimod01_os_path',
   'e:\\working '
   'application\\python\\lib\\site-packages\\PyInstaller\\loader\\pyimod01_os_path.pyc',
   'PYMODULE'),
  ('pyimod02_archive',
   'e:\\working '
   'application\\python\\lib\\site-packages\\PyInstaller\\loader\\pyimod02_archive.pyc',
   'PYMODULE'),
  ('pyimod03_importers',
   'e:\\working '
   'application\\python\\lib\\site-packages\\PyInstaller\\loader\\pyimod03_importers.pyc',
   'PYMODULE'),
  ('pyiboot01_bootstrap',
   'e:\\working '
   'application\\python\\lib\\site-packages\\PyInstaller\\loader\\pyiboot01_bootstrap.py',
   'PYSOURCE'),
  ('main', 'E:\\1-Working Project\\SQLPALACE\\main.py', 'PYSOURCE'),
  ('python35.dll', 'e:\\working application\\python\\python35.dll', 'BINARY'),
  ('VCRUNTIME140.dll',
   'e:\\working application\\python\\VCRUNTIME140.dll',
   'BINARY'),
  ('_ssl', 'e:\\working application\\python\\DLLs\\_ssl.pyd', 'EXTENSION'),
  ('unicodedata',
   'e:\\working application\\python\\DLLs\\unicodedata.pyd',
   'EXTENSION'),
  ('_ctypes',
   'e:\\working application\\python\\DLLs\\_ctypes.pyd',
   'EXTENSION'),
  ('pyexpat',
   'e:\\working application\\python\\DLLs\\pyexpat.pyd',
   'EXTENSION'),
  ('_hashlib',
   'e:\\working application\\python\\DLLs\\_hashlib.pyd',
   'EXTENSION'),
  ('select', 'e:\\working application\\python\\DLLs\\select.pyd', 'EXTENSION'),
  ('_bz2', 'e:\\working application\\python\\DLLs\\_bz2.pyd', 'EXTENSION'),
  ('_lzma', 'e:\\working application\\python\\DLLs\\_lzma.pyd', 'EXTENSION'),
  ('_socket',
   'e:\\working application\\python\\DLLs\\_socket.pyd',
   'EXTENSION'),
  ('win32wnet',
   'e:\\working application\\python\\lib\\site-packages\\win32\\win32wnet.pyd',
   'EXTENSION'),
  ('pywintypes35.dll',
   'e:\\working '
   'application\\python\\lib\\site-packages\\pypiwin32_system32\\pywintypes35.dll',
   'BINARY'),
  ('MSVCR100.dll', 'C:\\WINDOWS\\system32\\msvcr100.dll', 'BINARY'),
  ('base_library.zip',
   'E:\\1-Working Project\\SQLPALACE\\build\\main\\base_library.zip',
   'DATA'),
  ('requests\\cacert.pem',
   'e:\\working application\\python\\lib\\site-packages\\requests\\cacert.pem',
   'DATA'),
  ('main.exe.manifest',
   'E:\\1-Working Project\\SQLPALACE\\build\\main\\main.exe.manifest',
   'BINARY'),
  ('pyi-windows-manifest-filename main.exe.manifest', '', 'OPTION')],
 [],
 False,
 False,
 1466558028,
 [('run.exe',
   'e:\\working '
   'application\\python\\lib\\site-packages\\PyInstaller\\bootloader\\Windows-32bit\\run.exe',
   'EXECUTABLE')])
