('E:\\1-Working Project\\SQLPALACE\\build\\main\\out00-PKG.pkg',
 {'BINARY': 1,
  'DATA': 1,
  'EXECUTABLE': 1,
  'EXTENSION': 1,
  'PYMODULE': 1,
  'PYSOURCE': 1,
  'PYZ': 0},
 [('out00-PYZ.pyz',
   'E:\\1-Working Project\\SQLPALACE\\build\\main\\out00-PYZ.pyz',
   'PYZ'),
  ('struct', 'e:\\working application\\python\\lib\\struct.pyo', 'PYMODULE'),
  ('pyimod01_os_path',
   'e:\\working '
   'application\\python\\lib\\site-packages\\PyInstaller\\loader\\pyimod01_os_path.pyc',
   'PYMODULE'),
  ('pyimod02_archive',
   'e:\\working '
   'application\\python\\lib\\site-packages\\PyInstaller\\loader\\pyimod02_archive.pyc',
   'PYMODULE'),
  ('pyimod03_importers',
   'e:\\working '
   'application\\python\\lib\\site-packages\\PyInstaller\\loader\\pyimod03_importers.pyc',
   'PYMODULE'),
  ('pyiboot01_bootstrap',
   'e:\\working '
   'application\\python\\lib\\site-packages\\PyInstaller\\loader\\pyiboot01_bootstrap.py',
   'PYSOURCE'),
  ('main', 'E:\\1-Working Project\\SQLPALACE\\main.py', 'PYSOURCE'),
  ('python35.dll', 'e:\\working application\\python\\python35.dll', 'BINARY'),
  ('VCRUNTIME140.dll',
   'e:\\working application\\python\\VCRUNTIME140.dll',
   'BINARY'),
  ('_ssl', 'e:\\working application\\python\\DLLs\\_ssl.pyd', 'EXTENSION'),
  ('unicodedata',
   'e:\\working application\\python\\DLLs\\unicodedata.pyd',
   'EXTENSION'),
  ('_ctypes',
   'e:\\working application\\python\\DLLs\\_ctypes.pyd',
   'EXTENSION'),
  ('pyexpat',
   'e:\\working application\\python\\DLLs\\pyexpat.pyd',
   'EXTENSION'),
  ('_hashlib',
   'e:\\working application\\python\\DLLs\\_hashlib.pyd',
   'EXTENSION'),
  ('select', 'e:\\working application\\python\\DLLs\\select.pyd', 'EXTENSION'),
  ('_bz2', 'e:\\working application\\python\\DLLs\\_bz2.pyd', 'EXTENSION'),
  ('_lzma', 'e:\\working application\\python\\DLLs\\_lzma.pyd', 'EXTENSION'),
  ('_socket',
   'e:\\working application\\python\\DLLs\\_socket.pyd',
   'EXTENSION'),
  ('win32wnet',
   'e:\\working application\\python\\lib\\site-packages\\win32\\win32wnet.pyd',
   'EXTENSION'),
  ('pywintypes35.dll',
   'e:\\working '
   'application\\python\\lib\\site-packages\\pypiwin32_system32\\pywintypes35.dll',
   'BINARY'),
  ('MSVCR100.dll', 'C:\\WINDOWS\\system32\\msvcr100.dll', 'BINARY'),
  ('base_library.zip',
   'E:\\1-Working Project\\SQLPALACE\\build\\main\\base_library.zip',
   'DATA'),
  ('requests\\cacert.pem',
   'e:\\working application\\python\\lib\\site-packages\\requests\\cacert.pem',
   'DATA'),
  ('main.exe.manifest',
   'E:\\1-Working Project\\SQLPALACE\\build\\main\\main.exe.manifest',
   'BINARY'),
  ('pyi-windows-manifest-filename main.exe.manifest', '', 'OPTION')],
 False,
 False,
 False)
