(['E:\\1-Working Project\\SQLPALACE\\main.py'],
 ['E:\\1-Working Project\\SQLPALACE', 'E:\\1-Working Project\\SQLPALACE'],
 ['codecs'],
 [],
 [],
 [],
 False,
 False,
 [('main', 'E:\\1-Working Project\\SQLPALACE\\main.py', 'PYSOURCE')],
 [('ntpath', 'e:\\working application\\python\\lib\\ntpath.py', 'PYMODULE'),
  ('_strptime',
   'e:\\working application\\python\\lib\\_strptime.py',
   'PYMODULE'),
  ('datetime', 'e:\\working application\\python\\lib\\datetime.py', 'PYMODULE'),
  ('stringprep',
   'e:\\working application\\python\\lib\\stringprep.py',
   'PYMODULE'),
  ('_compat_pickle',
   'e:\\working application\\python\\lib\\_compat_pickle.py',
   'PYMODULE'),
  ('pickle', 'e:\\working application\\python\\lib\\pickle.py', 'PYMODULE'),
  ('__future__',
   'e:\\working application\\python\\lib\\__future__.py',
   'PYMODULE'),
  ('argparse', 'e:\\working application\\python\\lib\\argparse.py', 'PYMODULE'),
  ('difflib', 'e:\\working application\\python\\lib\\difflib.py', 'PYMODULE'),
  ('ast', 'e:\\working application\\python\\lib\\ast.py', 'PYMODULE'),
  ('imp', 'e:\\working application\\python\\lib\\imp.py', 'PYMODULE'),
  ('inspect', 'e:\\working application\\python\\lib\\inspect.py', 'PYMODULE'),
  ('os', 'e:\\working application\\python\\lib\\os.py', 'PYMODULE'),
  ('cmd', 'e:\\working application\\python\\lib\\cmd.py', 'PYMODULE'),
  ('bdb', 'e:\\working application\\python\\lib\\bdb.py', 'PYMODULE'),
  ('opcode', 'e:\\working application\\python\\lib\\opcode.py', 'PYMODULE'),
  ('dis', 'e:\\working application\\python\\lib\\dis.py', 'PYMODULE'),
  ('codeop', 'e:\\working application\\python\\lib\\codeop.py', 'PYMODULE'),
  ('code', 'e:\\working application\\python\\lib\\code.py', 'PYMODULE'),
  ('glob', 'e:\\working application\\python\\lib\\glob.py', 'PYMODULE'),
  ('shlex', 'e:\\working application\\python\\lib\\shlex.py', 'PYMODULE'),
  ('importlib._bootstrap',
   'e:\\working application\\python\\lib\\importlib\\_bootstrap.py',
   'PYMODULE'),
  ('importlib._bootstrap_external',
   'e:\\working application\\python\\lib\\importlib\\_bootstrap_external.py',
   'PYMODULE'),
  ('importlib.machinery',
   'e:\\working application\\python\\lib\\importlib\\machinery.py',
   'PYMODULE'),
  ('importlib.util',
   'e:\\working application\\python\\lib\\importlib\\util.py',
   'PYMODULE'),
  ('importlib.abc',
   'e:\\working application\\python\\lib\\importlib\\abc.py',
   'PYMODULE'),
  ('importlib',
   'e:\\working application\\python\\lib\\importlib\\__init__.py',
   'PYMODULE'),
  ('pkgutil', 'e:\\working application\\python\\lib\\pkgutil.py', 'PYMODULE'),
  ('ctypes._endian',
   'e:\\working application\\python\\lib\\ctypes\\_endian.py',
   'PYMODULE'),
  ('ctypes',
   'e:\\working application\\python\\lib\\ctypes\\__init__.py',
   'PYMODULE'),
  ('ctypes.wintypes',
   'e:\\working application\\python\\lib\\ctypes\\wintypes.py',
   'PYMODULE'),
  ('xml', 'e:\\working application\\python\\lib\\xml\\__init__.py', 'PYMODULE'),
  ('xml.sax.expatreader',
   'e:\\working application\\python\\lib\\xml\\sax\\expatreader.py',
   'PYMODULE'),
  ('xml.sax.saxutils',
   'e:\\working application\\python\\lib\\xml\\sax\\saxutils.py',
   'PYMODULE'),
  ('urllib.request',
   'e:\\working application\\python\\lib\\urllib\\request.py',
   'PYMODULE'),
  ('getpass', 'e:\\working application\\python\\lib\\getpass.py', 'PYMODULE'),
  ('nturl2path',
   'e:\\working application\\python\\lib\\nturl2path.py',
   'PYMODULE'),
  ('ftplib', 'e:\\working application\\python\\lib\\ftplib.py', 'PYMODULE'),
  ('netrc', 'e:\\working application\\python\\lib\\netrc.py', 'PYMODULE'),
  ('http.cookiejar',
   'e:\\working application\\python\\lib\\http\\cookiejar.py',
   'PYMODULE'),
  ('urllib.response',
   'e:\\working application\\python\\lib\\urllib\\response.py',
   'PYMODULE'),
  ('urllib.error',
   'e:\\working application\\python\\lib\\urllib\\error.py',
   'PYMODULE'),
  ('bisect', 'e:\\working application\\python\\lib\\bisect.py', 'PYMODULE'),
  ('xml.sax',
   'e:\\working application\\python\\lib\\xml\\sax\\__init__.py',
   'PYMODULE'),
  ('xml.sax.handler',
   'e:\\working application\\python\\lib\\xml\\sax\\handler.py',
   'PYMODULE'),
  ('xml.sax._exceptions',
   'e:\\working application\\python\\lib\\xml\\sax\\_exceptions.py',
   'PYMODULE'),
  ('xml.sax.xmlreader',
   'e:\\working application\\python\\lib\\xml\\sax\\xmlreader.py',
   'PYMODULE'),
  ('xml.parsers',
   'e:\\working application\\python\\lib\\xml\\parsers\\__init__.py',
   'PYMODULE'),
  ('xml.parsers.expat',
   'e:\\working application\\python\\lib\\xml\\parsers\\expat.py',
   'PYMODULE'),
  ('plistlib', 'e:\\working application\\python\\lib\\plistlib.py', 'PYMODULE'),
  ('platform', 'e:\\working application\\python\\lib\\platform.py', 'PYMODULE'),
  ('urllib.parse',
   'e:\\working application\\python\\lib\\urllib\\parse.py',
   'PYMODULE'),
  ('tempfile', 'e:\\working application\\python\\lib\\tempfile.py', 'PYMODULE'),
  ('subprocess',
   'e:\\working application\\python\\lib\\subprocess.py',
   'PYMODULE'),
  ('tty', 'e:\\working application\\python\\lib\\tty.py', 'PYMODULE'),
  ('pydoc_data',
   'e:\\working application\\python\\lib\\pydoc_data\\__init__.py',
   'PYMODULE'),
  ('pydoc_data.topics',
   'e:\\working application\\python\\lib\\pydoc_data\\topics.py',
   'PYMODULE'),
  ('textwrap', 'e:\\working application\\python\\lib\\textwrap.py', 'PYMODULE'),
  ('html.entities',
   'e:\\working application\\python\\lib\\html\\entities.py',
   'PYMODULE'),
  ('html',
   'e:\\working application\\python\\lib\\html\\__init__.py',
   'PYMODULE'),
  ('ipaddress',
   'e:\\working application\\python\\lib\\ipaddress.py',
   'PYMODULE'),
  ('ssl', 'e:\\working application\\python\\lib\\ssl.py', 'PYMODULE'),
  ('http.client',
   'e:\\working application\\python\\lib\\http\\client.py',
   'PYMODULE'),
  ('mimetypes',
   'e:\\working application\\python\\lib\\mimetypes.py',
   'PYMODULE'),
  ('socketserver',
   'e:\\working application\\python\\lib\\socketserver.py',
   'PYMODULE'),
  ('http',
   'e:\\working application\\python\\lib\\http\\__init__.py',
   'PYMODULE'),
  ('http.server',
   'e:\\working application\\python\\lib\\http\\server.py',
   'PYMODULE'),
  ('uu', 'e:\\working application\\python\\lib\\uu.py', 'PYMODULE'),
  ('quopri', 'e:\\working application\\python\\lib\\quopri.py', 'PYMODULE'),
  ('email.feedparser',
   'e:\\working application\\python\\lib\\email\\feedparser.py',
   'PYMODULE'),
  ('email.parser',
   'e:\\working application\\python\\lib\\email\\parser.py',
   'PYMODULE'),
  ('email',
   'e:\\working application\\python\\lib\\email\\__init__.py',
   'PYMODULE'),
  ('optparse', 'e:\\working application\\python\\lib\\optparse.py', 'PYMODULE'),
  ('calendar', 'e:\\working application\\python\\lib\\calendar.py', 'PYMODULE'),
  ('email._parseaddr',
   'e:\\working application\\python\\lib\\email\\_parseaddr.py',
   'PYMODULE'),
  ('email.utils',
   'e:\\working application\\python\\lib\\email\\utils.py',
   'PYMODULE'),
  ('email.errors',
   'e:\\working application\\python\\lib\\email\\errors.py',
   'PYMODULE'),
  ('email.header',
   'e:\\working application\\python\\lib\\email\\header.py',
   'PYMODULE'),
  ('email._policybase',
   'e:\\working application\\python\\lib\\email\\_policybase.py',
   'PYMODULE'),
  ('email.base64mime',
   'e:\\working application\\python\\lib\\email\\base64mime.py',
   'PYMODULE'),
  ('email.encoders',
   'e:\\working application\\python\\lib\\email\\encoders.py',
   'PYMODULE'),
  ('email.charset',
   'e:\\working application\\python\\lib\\email\\charset.py',
   'PYMODULE'),
  ('base64', 'e:\\working application\\python\\lib\\base64.py', 'PYMODULE'),
  ('email._encoded_words',
   'e:\\working application\\python\\lib\\email\\_encoded_words.py',
   'PYMODULE'),
  ('hashlib', 'e:\\working application\\python\\lib\\hashlib.py', 'PYMODULE'),
  ('random', 'e:\\working application\\python\\lib\\random.py', 'PYMODULE'),
  ('email.generator',
   'e:\\working application\\python\\lib\\email\\generator.py',
   'PYMODULE'),
  ('email.iterators',
   'e:\\working application\\python\\lib\\email\\iterators.py',
   'PYMODULE'),
  ('urllib',
   'e:\\working application\\python\\lib\\urllib\\__init__.py',
   'PYMODULE'),
  ('email._header_value_parser',
   'e:\\working application\\python\\lib\\email\\_header_value_parser.py',
   'PYMODULE'),
  ('email.headerregistry',
   'e:\\working application\\python\\lib\\email\\headerregistry.py',
   'PYMODULE'),
  ('email.quoprimime',
   'e:\\working application\\python\\lib\\email\\quoprimime.py',
   'PYMODULE'),
  ('email.contentmanager',
   'e:\\working application\\python\\lib\\email\\contentmanager.py',
   'PYMODULE'),
  ('email.policy',
   'e:\\working application\\python\\lib\\email\\policy.py',
   'PYMODULE'),
  ('email.message',
   'e:\\working application\\python\\lib\\email\\message.py',
   'PYMODULE'),
  ('gzip', 'e:\\working application\\python\\lib\\gzip.py', 'PYMODULE'),
  ('tarfile', 'e:\\working application\\python\\lib\\tarfile.py', 'PYMODULE'),
  ('bz2', 'e:\\working application\\python\\lib\\bz2.py', 'PYMODULE'),
  ('_compression',
   'e:\\working application\\python\\lib\\_compression.py',
   'PYMODULE'),
  ('lzma', 'e:\\working application\\python\\lib\\lzma.py', 'PYMODULE'),
  ('_dummy_thread',
   'e:\\working application\\python\\lib\\_dummy_thread.py',
   'PYMODULE'),
  ('dummy_threading',
   'e:\\working application\\python\\lib\\dummy_threading.py',
   'PYMODULE'),
  ('py_compile',
   'e:\\working application\\python\\lib\\py_compile.py',
   'PYMODULE'),
  ('zipfile', 'e:\\working application\\python\\lib\\zipfile.py', 'PYMODULE'),
  ('shutil', 'e:\\working application\\python\\lib\\shutil.py', 'PYMODULE'),
  ('selectors',
   'e:\\working application\\python\\lib\\selectors.py',
   'PYMODULE'),
  ('socket', 'e:\\working application\\python\\lib\\socket.py', 'PYMODULE'),
  ('webbrowser',
   'e:\\working application\\python\\lib\\webbrowser.py',
   'PYMODULE'),
  ('pydoc', 'e:\\working application\\python\\lib\\pydoc.py', 'PYMODULE'),
  ('copy', 'e:\\working application\\python\\lib\\copy.py', 'PYMODULE'),
  ('struct', 'e:\\working application\\python\\lib\\struct.py', 'PYMODULE'),
  ('token', 'e:\\working application\\python\\lib\\token.py', 'PYMODULE'),
  ('tokenize', 'e:\\working application\\python\\lib\\tokenize.py', 'PYMODULE'),
  ('gettext', 'e:\\working application\\python\\lib\\gettext.py', 'PYMODULE'),
  ('getopt', 'e:\\working application\\python\\lib\\getopt.py', 'PYMODULE'),
  ('pdb', 'e:\\working application\\python\\lib\\pdb.py', 'PYMODULE'),
  ('unittest.util',
   'e:\\working application\\python\\lib\\unittest\\util.py',
   'PYMODULE'),
  ('unittest.result',
   'e:\\working application\\python\\lib\\unittest\\result.py',
   'PYMODULE'),
  ('string', 'e:\\working application\\python\\lib\\string.py', 'PYMODULE'),
  ('_threading_local',
   'e:\\working application\\python\\lib\\_threading_local.py',
   'PYMODULE'),
  ('threading',
   'e:\\working application\\python\\lib\\threading.py',
   'PYMODULE'),
  ('logging',
   'e:\\working application\\python\\lib\\logging\\__init__.py',
   'PYMODULE'),
  ('pprint', 'e:\\working application\\python\\lib\\pprint.py', 'PYMODULE'),
  ('contextlib',
   'e:\\working application\\python\\lib\\contextlib.py',
   'PYMODULE'),
  ('unittest.case',
   'e:\\working application\\python\\lib\\unittest\\case.py',
   'PYMODULE'),
  ('unittest.suite',
   'e:\\working application\\python\\lib\\unittest\\suite.py',
   'PYMODULE'),
  ('stat', 'e:\\working application\\python\\lib\\stat.py', 'PYMODULE'),
  ('genericpath',
   'e:\\working application\\python\\lib\\genericpath.py',
   'PYMODULE'),
  ('posixpath',
   'e:\\working application\\python\\lib\\posixpath.py',
   'PYMODULE'),
  ('fnmatch', 'e:\\working application\\python\\lib\\fnmatch.py', 'PYMODULE'),
  ('unittest.loader',
   'e:\\working application\\python\\lib\\unittest\\loader.py',
   'PYMODULE'),
  ('warnings', 'e:\\working application\\python\\lib\\warnings.py', 'PYMODULE'),
  ('unittest.runner',
   'e:\\working application\\python\\lib\\unittest\\runner.py',
   'PYMODULE'),
  ('unittest.main',
   'e:\\working application\\python\\lib\\unittest\\main.py',
   'PYMODULE'),
  ('enum', 'e:\\working application\\python\\lib\\enum.py', 'PYMODULE'),
  ('signal', 'e:\\working application\\python\\lib\\signal.py', 'PYMODULE'),
  ('unittest.signals',
   'e:\\working application\\python\\lib\\unittest\\signals.py',
   'PYMODULE'),
  ('unittest',
   'e:\\working application\\python\\lib\\unittest\\__init__.py',
   'PYMODULE'),
  ('doctest', 'e:\\working application\\python\\lib\\doctest.py', 'PYMODULE'),
  ('facebook',
   'e:\\working application\\python\\lib\\site-packages\\facebook\\__init__.py',
   'PYMODULE'),
  ('facebook.version',
   'e:\\working application\\python\\lib\\site-packages\\facebook\\version.py',
   'PYMODULE'),
  ('json',
   'e:\\working application\\python\\lib\\json\\__init__.py',
   'PYMODULE'),
  ('json.encoder',
   'e:\\working application\\python\\lib\\json\\encoder.py',
   'PYMODULE'),
  ('json.decoder',
   'e:\\working application\\python\\lib\\json\\decoder.py',
   'PYMODULE'),
  ('json.scanner',
   'e:\\working application\\python\\lib\\json\\scanner.py',
   'PYMODULE'),
  ('requests',
   'e:\\working application\\python\\lib\\site-packages\\requests\\__init__.py',
   'PYMODULE'),
  ('requests.exceptions',
   'e:\\working '
   'application\\python\\lib\\site-packages\\requests\\exceptions.py',
   'PYMODULE'),
  ('requests.status_codes',
   'e:\\working '
   'application\\python\\lib\\site-packages\\requests\\status_codes.py',
   'PYMODULE'),
  ('requests.structures',
   'e:\\working '
   'application\\python\\lib\\site-packages\\requests\\structures.py',
   'PYMODULE'),
  ('requests.compat',
   'e:\\working application\\python\\lib\\site-packages\\requests\\compat.py',
   'PYMODULE'),
  ('http.cookies',
   'e:\\working application\\python\\lib\\http\\cookies.py',
   'PYMODULE'),
  ('requests.packages.urllib3.packages.ordered_dict',
   'e:\\working '
   'application\\python\\lib\\site-packages\\requests\\packages\\urllib3\\packages\\ordered_dict.py',
   'PYMODULE'),
  ('requests.packages.urllib3.packages',
   'e:\\working '
   'application\\python\\lib\\site-packages\\requests\\packages\\urllib3\\packages\\__init__.py',
   'PYMODULE'),
  ('requests.packages.urllib3.packages.six',
   'e:\\working '
   'application\\python\\lib\\site-packages\\requests\\packages\\urllib3\\packages\\six.py',
   'PYMODULE'),
  ('requests.packages.urllib3',
   'e:\\working '
   'application\\python\\lib\\site-packages\\requests\\packages\\urllib3\\__init__.py',
   'PYMODULE'),
  ('requests.packages.urllib3.util.retry',
   'e:\\working '
   'application\\python\\lib\\site-packages\\requests\\packages\\urllib3\\util\\retry.py',
   'PYMODULE'),
  ('requests.packages.urllib3.util',
   'e:\\working '
   'application\\python\\lib\\site-packages\\requests\\packages\\urllib3\\util\\__init__.py',
   'PYMODULE'),
  ('requests.packages.urllib3.util.ssl_',
   'e:\\working '
   'application\\python\\lib\\site-packages\\requests\\packages\\urllib3\\util\\ssl_.py',
   'PYMODULE'),
  ('requests.packages.urllib3.util.response',
   'e:\\working '
   'application\\python\\lib\\site-packages\\requests\\packages\\urllib3\\util\\response.py',
   'PYMODULE'),
  ('requests.packages.urllib3.util.connection',
   'e:\\working '
   'application\\python\\lib\\site-packages\\requests\\packages\\urllib3\\util\\connection.py',
   'PYMODULE'),
  ('requests.packages.urllib3.util.timeout',
   'e:\\working '
   'application\\python\\lib\\site-packages\\requests\\packages\\urllib3\\util\\timeout.py',
   'PYMODULE'),
  ('requests.packages.urllib3.util.url',
   'e:\\working '
   'application\\python\\lib\\site-packages\\requests\\packages\\urllib3\\util\\url.py',
   'PYMODULE'),
  ('requests.packages.urllib3.util.request',
   'e:\\working '
   'application\\python\\lib\\site-packages\\requests\\packages\\urllib3\\util\\request.py',
   'PYMODULE'),
  ('requests.packages.urllib3.response',
   'e:\\working '
   'application\\python\\lib\\site-packages\\requests\\packages\\urllib3\\response.py',
   'PYMODULE'),
  ('requests.packages.urllib3.connection',
   'e:\\working '
   'application\\python\\lib\\site-packages\\requests\\packages\\urllib3\\connection.py',
   'PYMODULE'),
  ('requests.packages.urllib3._collections',
   'e:\\working '
   'application\\python\\lib\\site-packages\\requests\\packages\\urllib3\\_collections.py',
   'PYMODULE'),
  ('requests.packages.urllib3.poolmanager',
   'e:\\working '
   'application\\python\\lib\\site-packages\\requests\\packages\\urllib3\\poolmanager.py',
   'PYMODULE'),
  ('requests.packages.urllib3.request',
   'e:\\working '
   'application\\python\\lib\\site-packages\\requests\\packages\\urllib3\\request.py',
   'PYMODULE'),
  ('requests.packages.urllib3.filepost',
   'e:\\working '
   'application\\python\\lib\\site-packages\\requests\\packages\\urllib3\\filepost.py',
   'PYMODULE'),
  ('requests.packages.urllib3.fields',
   'e:\\working '
   'application\\python\\lib\\site-packages\\requests\\packages\\urllib3\\fields.py',
   'PYMODULE'),
  ('uuid', 'e:\\working application\\python\\lib\\uuid.py', 'PYMODULE'),
  ('ctypes.util',
   'e:\\working application\\python\\lib\\ctypes\\util.py',
   'PYMODULE'),
  ('ctypes.macholib.dyld',
   'e:\\working application\\python\\lib\\ctypes\\macholib\\dyld.py',
   'PYMODULE'),
  ('ctypes.macholib',
   'e:\\working application\\python\\lib\\ctypes\\macholib\\__init__.py',
   'PYMODULE'),
  ('ctypes.macholib.dylib',
   'e:\\working application\\python\\lib\\ctypes\\macholib\\dylib.py',
   'PYMODULE'),
  ('ctypes.macholib.framework',
   'e:\\working application\\python\\lib\\ctypes\\macholib\\framework.py',
   'PYMODULE'),
  ('netbios',
   'e:\\working '
   'application\\python\\lib\\site-packages\\win32\\lib\\netbios.py',
   'PYMODULE'),
  ('requests.packages.urllib3.connectionpool',
   'e:\\working '
   'application\\python\\lib\\site-packages\\requests\\packages\\urllib3\\connectionpool.py',
   'PYMODULE'),
  ('queue', 'e:\\working application\\python\\lib\\queue.py', 'PYMODULE'),
  ('requests.packages.urllib3.packages.ssl_match_hostname',
   'e:\\working '
   'application\\python\\lib\\site-packages\\requests\\packages\\urllib3\\packages\\ssl_match_hostname\\__init__.py',
   'PYMODULE'),
  ('requests.packages.urllib3.packages.ssl_match_hostname._implementation',
   'e:\\working '
   'application\\python\\lib\\site-packages\\requests\\packages\\urllib3\\packages\\ssl_match_hostname\\_implementation.py',
   'PYMODULE'),
  ('requests.packages.chardet',
   'e:\\working '
   'application\\python\\lib\\site-packages\\requests\\packages\\chardet\\__init__.py',
   'PYMODULE'),
  ('requests.packages.chardet.universaldetector',
   'e:\\working '
   'application\\python\\lib\\site-packages\\requests\\packages\\chardet\\universaldetector.py',
   'PYMODULE'),
  ('requests.packages.chardet.escprober',
   'e:\\working '
   'application\\python\\lib\\site-packages\\requests\\packages\\chardet\\escprober.py',
   'PYMODULE'),
  ('requests.packages.chardet.compat',
   'e:\\working '
   'application\\python\\lib\\site-packages\\requests\\packages\\chardet\\compat.py',
   'PYMODULE'),
  ('requests.packages.chardet.codingstatemachine',
   'e:\\working '
   'application\\python\\lib\\site-packages\\requests\\packages\\chardet\\codingstatemachine.py',
   'PYMODULE'),
  ('requests.packages.chardet.charsetprober',
   'e:\\working '
   'application\\python\\lib\\site-packages\\requests\\packages\\chardet\\charsetprober.py',
   'PYMODULE'),
  ('requests.packages.chardet.escsm',
   'e:\\working '
   'application\\python\\lib\\site-packages\\requests\\packages\\chardet\\escsm.py',
   'PYMODULE'),
  ('requests.packages.chardet.sbcsgroupprober',
   'e:\\working '
   'application\\python\\lib\\site-packages\\requests\\packages\\chardet\\sbcsgroupprober.py',
   'PYMODULE'),
  ('requests.packages.chardet.hebrewprober',
   'e:\\working '
   'application\\python\\lib\\site-packages\\requests\\packages\\chardet\\hebrewprober.py',
   'PYMODULE'),
  ('requests.packages.chardet.langhebrewmodel',
   'e:\\working '
   'application\\python\\lib\\site-packages\\requests\\packages\\chardet\\langhebrewmodel.py',
   'PYMODULE'),
  ('requests.packages.chardet.langthaimodel',
   'e:\\working '
   'application\\python\\lib\\site-packages\\requests\\packages\\chardet\\langthaimodel.py',
   'PYMODULE'),
  ('requests.packages.chardet.langhungarianmodel',
   'e:\\working '
   'application\\python\\lib\\site-packages\\requests\\packages\\chardet\\langhungarianmodel.py',
   'PYMODULE'),
  ('requests.packages.chardet.langbulgarianmodel',
   'e:\\working '
   'application\\python\\lib\\site-packages\\requests\\packages\\chardet\\langbulgarianmodel.py',
   'PYMODULE'),
  ('requests.packages.chardet.langgreekmodel',
   'e:\\working '
   'application\\python\\lib\\site-packages\\requests\\packages\\chardet\\langgreekmodel.py',
   'PYMODULE'),
  ('requests.packages.chardet.langcyrillicmodel',
   'e:\\working '
   'application\\python\\lib\\site-packages\\requests\\packages\\chardet\\langcyrillicmodel.py',
   'PYMODULE'),
  ('requests.packages.chardet.sbcharsetprober',
   'e:\\working '
   'application\\python\\lib\\site-packages\\requests\\packages\\chardet\\sbcharsetprober.py',
   'PYMODULE'),
  ('requests.packages.chardet.charsetgroupprober',
   'e:\\working '
   'application\\python\\lib\\site-packages\\requests\\packages\\chardet\\charsetgroupprober.py',
   'PYMODULE'),
  ('requests.packages.chardet.mbcsgroupprober',
   'e:\\working '
   'application\\python\\lib\\site-packages\\requests\\packages\\chardet\\mbcsgroupprober.py',
   'PYMODULE'),
  ('requests.packages.chardet.euctwprober',
   'e:\\working '
   'application\\python\\lib\\site-packages\\requests\\packages\\chardet\\euctwprober.py',
   'PYMODULE'),
  ('requests.packages.chardet.mbcssm',
   'e:\\working '
   'application\\python\\lib\\site-packages\\requests\\packages\\chardet\\mbcssm.py',
   'PYMODULE'),
  ('requests.packages.chardet.chardistribution',
   'e:\\working '
   'application\\python\\lib\\site-packages\\requests\\packages\\chardet\\chardistribution.py',
   'PYMODULE'),
  ('requests.packages.chardet.jisfreq',
   'e:\\working '
   'application\\python\\lib\\site-packages\\requests\\packages\\chardet\\jisfreq.py',
   'PYMODULE'),
  ('requests.packages.chardet.big5freq',
   'e:\\working '
   'application\\python\\lib\\site-packages\\requests\\packages\\chardet\\big5freq.py',
   'PYMODULE'),
  ('requests.packages.chardet.gb2312freq',
   'e:\\working '
   'application\\python\\lib\\site-packages\\requests\\packages\\chardet\\gb2312freq.py',
   'PYMODULE'),
  ('requests.packages.chardet.euckrfreq',
   'e:\\working '
   'application\\python\\lib\\site-packages\\requests\\packages\\chardet\\euckrfreq.py',
   'PYMODULE'),
  ('requests.packages.chardet.euctwfreq',
   'e:\\working '
   'application\\python\\lib\\site-packages\\requests\\packages\\chardet\\euctwfreq.py',
   'PYMODULE'),
  ('requests.packages.chardet.mbcharsetprober',
   'e:\\working '
   'application\\python\\lib\\site-packages\\requests\\packages\\chardet\\mbcharsetprober.py',
   'PYMODULE'),
  ('requests.packages.chardet.big5prober',
   'e:\\working '
   'application\\python\\lib\\site-packages\\requests\\packages\\chardet\\big5prober.py',
   'PYMODULE'),
  ('requests.packages.chardet.cp949prober',
   'e:\\working '
   'application\\python\\lib\\site-packages\\requests\\packages\\chardet\\cp949prober.py',
   'PYMODULE'),
  ('requests.packages.chardet.euckrprober',
   'e:\\working '
   'application\\python\\lib\\site-packages\\requests\\packages\\chardet\\euckrprober.py',
   'PYMODULE'),
  ('requests.packages.chardet.gb2312prober',
   'e:\\working '
   'application\\python\\lib\\site-packages\\requests\\packages\\chardet\\gb2312prober.py',
   'PYMODULE'),
  ('requests.packages.chardet.eucjpprober',
   'e:\\working '
   'application\\python\\lib\\site-packages\\requests\\packages\\chardet\\eucjpprober.py',
   'PYMODULE'),
  ('requests.packages.chardet.jpcntx',
   'e:\\working '
   'application\\python\\lib\\site-packages\\requests\\packages\\chardet\\jpcntx.py',
   'PYMODULE'),
  ('requests.packages.chardet.sjisprober',
   'e:\\working '
   'application\\python\\lib\\site-packages\\requests\\packages\\chardet\\sjisprober.py',
   'PYMODULE'),
  ('requests.packages.chardet.utf8prober',
   'e:\\working '
   'application\\python\\lib\\site-packages\\requests\\packages\\chardet\\utf8prober.py',
   'PYMODULE'),
  ('requests.packages.chardet.latin1prober',
   'e:\\working '
   'application\\python\\lib\\site-packages\\requests\\packages\\chardet\\latin1prober.py',
   'PYMODULE'),
  ('requests.packages.chardet.constants',
   'e:\\working '
   'application\\python\\lib\\site-packages\\requests\\packages\\chardet\\constants.py',
   'PYMODULE'),
  ('requests.packages',
   'e:\\working '
   'application\\python\\lib\\site-packages\\requests\\packages\\__init__.py',
   'PYMODULE'),
  ('requests.api',
   'e:\\working application\\python\\lib\\site-packages\\requests\\api.py',
   'PYMODULE'),
  ('requests.sessions',
   'e:\\working application\\python\\lib\\site-packages\\requests\\sessions.py',
   'PYMODULE'),
  ('requests.adapters',
   'e:\\working application\\python\\lib\\site-packages\\requests\\adapters.py',
   'PYMODULE'),
  ('requests.packages.urllib3.contrib.socks',
   'e:\\working '
   'application\\python\\lib\\site-packages\\requests\\packages\\urllib3\\contrib\\socks.py',
   'PYMODULE'),
  ('requests.hooks',
   'e:\\working application\\python\\lib\\site-packages\\requests\\hooks.py',
   'PYMODULE'),
  ('requests.cookies',
   'e:\\working application\\python\\lib\\site-packages\\requests\\cookies.py',
   'PYMODULE'),
  ('requests.auth',
   'e:\\working application\\python\\lib\\site-packages\\requests\\auth.py',
   'PYMODULE'),
  ('requests.models',
   'e:\\working application\\python\\lib\\site-packages\\requests\\models.py',
   'PYMODULE'),
  ('requests.utils',
   'e:\\working application\\python\\lib\\site-packages\\requests\\utils.py',
   'PYMODULE'),
  ('cgi', 'e:\\working application\\python\\lib\\cgi.py', 'PYMODULE'),
  ('requests.certs',
   'e:\\working application\\python\\lib\\site-packages\\requests\\certs.py',
   'PYMODULE'),
  ('requests.packages.urllib3.exceptions',
   'e:\\working '
   'application\\python\\lib\\site-packages\\requests\\packages\\urllib3\\exceptions.py',
   'PYMODULE'),
  ('requests.packages.urllib3.contrib.pyopenssl',
   'e:\\working '
   'application\\python\\lib\\site-packages\\requests\\packages\\urllib3\\contrib\\pyopenssl.py',
   'PYMODULE'),
  ('requests.packages.urllib3.contrib',
   'e:\\working '
   'application\\python\\lib\\site-packages\\requests\\packages\\urllib3\\contrib\\__init__.py',
   'PYMODULE'),
  ('hmac', 'e:\\working application\\python\\lib\\hmac.py', 'PYMODULE'),
  ('csv', 'e:\\working application\\python\\lib\\csv.py', 'PYMODULE')],
 [('python35.dll', 'e:\\working application\\python\\python35.dll', 'BINARY'),
  ('VCRUNTIME140.dll',
   'e:\\working application\\python\\VCRUNTIME140.dll',
   'BINARY'),
  ('_ssl', 'e:\\working application\\python\\DLLs\\_ssl.pyd', 'EXTENSION'),
  ('unicodedata',
   'e:\\working application\\python\\DLLs\\unicodedata.pyd',
   'EXTENSION'),
  ('_ctypes',
   'e:\\working application\\python\\DLLs\\_ctypes.pyd',
   'EXTENSION'),
  ('pyexpat',
   'e:\\working application\\python\\DLLs\\pyexpat.pyd',
   'EXTENSION'),
  ('_hashlib',
   'e:\\working application\\python\\DLLs\\_hashlib.pyd',
   'EXTENSION'),
  ('select', 'e:\\working application\\python\\DLLs\\select.pyd', 'EXTENSION'),
  ('_bz2', 'e:\\working application\\python\\DLLs\\_bz2.pyd', 'EXTENSION'),
  ('_lzma', 'e:\\working application\\python\\DLLs\\_lzma.pyd', 'EXTENSION'),
  ('_socket',
   'e:\\working application\\python\\DLLs\\_socket.pyd',
   'EXTENSION'),
  ('win32wnet',
   'e:\\working application\\python\\lib\\site-packages\\win32\\win32wnet.pyd',
   'EXTENSION'),
  ('pywintypes35.dll',
   'e:\\working '
   'application\\python\\lib\\site-packages\\pypiwin32_system32\\pywintypes35.dll',
   'BINARY'),
  ('MSVCR100.dll', 'C:\\WINDOWS\\system32\\msvcr100.dll', 'BINARY')],
 [],
 [],
 [('base_library.zip',
   'E:\\1-Working Project\\SQLPALACE\\build\\main\\base_library.zip',
   'DATA'),
  ('requests\\cacert.pem',
   'e:\\working application\\python\\lib\\site-packages\\requests\\cacert.pem',
   'DATA')],
 [])
